…
Here we can see the total steps, as well as the mean and median number of steps per day. Please note that there are several days that contains only `NA`s entries, and therefore nor the median nor the mean can be computed.


```r
DS_sum
```

```
## # A tibble: 61 × 4
##    date       DailySteps DailyMean DailyMedian
##    <chr>           <int>     <dbl>       <dbl>
##  1 2012-10-01          0   NaN              NA
##  2 2012-10-02        126     0.438           0
##  3 2012-10-03      11352    39.4             0
##  4 2012-10-04      12116    42.1             0
##  5 2012-10-05      13294    46.2             0
##  6 2012-10-06      15420    53.5             0
##  7 2012-10-07      11015    38.2             0
##  8 2012-10-08          0   NaN              NA
##  9 2012-10-09      12811    44.5             0
## 10 2012-10-10       9900    34.4             0
## # ℹ 51 more rows
```
…
1. Make a time series plot of the 5-minute interval (x-axis) and the average number of steps taken, averaged across all days (y-axis).
2. Determine which 5-minute interval, on average across all days in the dataset, contains the maximum number of steps?


First, we group the dataframe by the `interval` column, and calculate the mean for each interval. After that, the time series plot using the `plot()` function is showed.


```r
Intervals <- group_by(df, interval)
Intervals_sum <- summarize(Intervals, IntervalsAvgSteps = mean(steps, na.rm = TRUE))
Intervals_sum
```

```
## # A tibble: 288 × 2
##    interval IntervalsAvgSteps
##       <int>             <dbl>
##  1        0            1.72  
##  2        5            0.340 
##  3       10            0.132 
##  4       15            0.151 
##  5       20            0.0755
##  6       25            2.09  
##  7       30            0.528 
##  8       35            0.868 
##  9       40            0     
## 10       45            1.47  
## # ℹ 278 more rows
```
…
Now, we can report the histogram with the missing values filled in in this fashion, as well as the mean and the median total number of steps taken per day.


```r
newDS <- group_by(newdf,date)
newDS_sum <- summarize(newDS, DailySteps = sum(steps, na.rm = TRUE), DailyMean  = mean(steps, na.rm = TRUE),DailyMedian = median(steps, na.rm = TRUE))
newDS_sum
```

```
## # A tibble: 61 × 4
##    date       DailySteps DailyMean DailyMedian
##    <chr>           <dbl>     <dbl>       <dbl>
##  1 2012-10-01     10766.    37.4          34.1
##  2 2012-10-02       126      0.438         0  
##  3 2012-10-03     11352     39.4           0  
##  4 2012-10-04     12116     42.1           0  
##  5 2012-10-05     13294     46.2           0  
##  6 2012-10-06     15420     53.5           0  
##  7 2012-10-07     11015     38.2           0  
##  8 2012-10-08     10766.    37.4          34.1
##  9 2012-10-09     12811     44.5           0  
## 10 2012-10-10      9900     34.4           0  
## # ℹ 51 more rows
```
…
Now, we make a plot with two panels to show the time series plot of the 5-minute interval and the average number of steps taken, averaged across all weekday days or weekend days.

To that end, we can group the data set for each `daytype` weekdays and for weekenddays and bind rows after that.


```r
newIntervals <- group_by(newdf, interval)
newIntervals_weekdays <- summarize(newIntervals, AvgSteps = mean(steps[daytype == "weekday"], na.rm = TRUE), daytype = "weekday")
newIntervals_weekdays
```

```
## # A tibble: 288 × 3
##    interval AvgSteps daytype
##       <int>    <dbl> <chr>  
##  1        0   2.25   weekday
##  2        5   0.445  weekday
##  3       10   0.173  weekday
##  4       15   0.198  weekday
##  5       20   0.0990 weekday
##  6       25   1.59   weekday
##  7       30   0.693  weekday
##  8       35   1.14   weekday
##  9       40   0      weekday
## 10       45   1.80   weekday
## # ℹ 278 more rows
```

```r
newIntervals_weekenddays <- summarize(newIntervals, AvgSteps = mean(steps[daytype == "weekend"], na.rm = TRUE), daytype = "weekend")
newIntervals_weekenddays
```

```
## # A tibble: 288 × 3
##    interval AvgSteps daytype
##       <int>    <dbl> <chr>  
##  1        0  0.215   weekend
##  2        5  0.0425  weekend
##  3       10  0.0165  weekend
##  4       15  0.0189  weekend
##  5       20  0.00943 weekend
##  6       25  3.51    weekend
##  7       30  0.0660  weekend
##  8       35  0.108   weekend
##  9       40  0       weekend
## 10       45  0.559   weekend
## # ℹ 278 more rows
```
…
